# Blender v2.70 (sub 0) OBJ File: 'Arch.blend'
# www.blender.org
mtllib arch.mtl
o Torus
v 1.241207 2.141431 -0.000000
v 1.207745 2.139970 0.125000
v 1.116326 2.135979 0.216506
v 0.991445 2.130526 0.250000
v 0.866564 2.125074 0.216506
v 0.775145 2.121082 0.125000
v 0.741683 2.119621 -0.000000
v 0.775145 2.121082 -0.125000
v 0.866564 2.125074 -0.216506
v 0.991445 2.130526 -0.250000
v 1.116326 2.135979 -0.216506
v 1.207745 2.139970 -0.125000
v 1.207407 2.323524 -0.000000
v 1.175055 2.314855 0.125000
v 1.086667 2.291172 0.216506
v 0.965926 2.258819 0.250000
v 0.845185 2.226467 0.216506
v 0.756797 2.202783 0.125000
v 0.724444 2.194114 -0.000000
v 0.756797 2.202783 -0.125000
v 0.845185 2.226467 -0.216506
v 0.965926 2.258819 -0.250000
v 1.086667 2.291171 -0.216506
v 1.175055 2.314855 -0.125000
v 1.154850 2.478354 -0.000000
v 1.123905 2.465537 0.125000
v 1.039365 2.430519 0.216506
v 0.923880 2.382683 0.250000
v 0.808395 2.334848 0.216506
v 0.723854 2.299830 0.125000
v 0.692910 2.287013 -0.000000
v 0.723854 2.299830 -0.125000
v 0.808395 2.334848 -0.216506
v 0.923880 2.382683 -0.250000
v 1.039365 2.430519 -0.216506
v 1.123905 2.465537 -0.125000
v 1.082532 2.625000 -0.000000
v 1.053525 2.608253 0.125000
v 0.974279 2.562500 0.216506
v 0.866025 2.500000 0.250000
v 0.757772 2.437500 0.216506
v 0.678525 2.391747 0.125000
v 0.649519 2.375000 -0.000000
v 0.678525 2.391747 -0.125000
v 0.757772 2.437500 -0.216506
v 0.866025 2.500000 -0.250000
v 0.974279 2.562500 -0.216506
v 1.053525 2.608253 -0.125000
v 0.991692 2.760952 -0.000000
v 0.965119 2.740562 0.125000
v 0.892523 2.684856 0.216506
v 0.793353 2.608761 0.250000
v 0.694184 2.532666 0.216506
v 0.621587 2.476961 0.125000
v 0.595015 2.456571 -0.000000
v 0.621587 2.476961 -0.125000
v 0.694184 2.532666 -0.216506
v 0.793353 2.608761 -0.250000
v 0.892523 2.684856 -0.216506
v 0.965119 2.740562 -0.125000
v 0.883883 2.883883 -0.000000
v 0.860200 2.860200 0.125000
v 0.795495 2.795495 0.216506
v 0.707107 2.707107 0.250000
v 0.618718 2.618718 0.216506
v 0.554014 2.554014 0.125000
v 0.530330 2.530330 -0.000000
v 0.554014 2.554014 -0.125000
v 0.618718 2.618718 -0.216506
v 0.707107 2.707107 -0.250000
v 0.795495 2.795495 -0.216506
v 0.860200 2.860200 -0.125000
v 0.760952 2.991692 -0.000000
v 0.740562 2.965119 0.125000
v 0.684857 2.892522 0.216506
v 0.608762 2.793353 0.250000
v 0.532666 2.694184 0.216506
v 0.476961 2.621587 0.125000
v 0.456571 2.595015 -0.000000
v 0.476961 2.621587 -0.125000
v 0.532666 2.694184 -0.216506
v 0.608762 2.793353 -0.250000
v 0.684857 2.892522 -0.216506
v 0.740562 2.965119 -0.125000
v 0.625000 3.082532 -0.000000
v 0.608253 3.053525 0.125000
v 0.562500 2.974278 0.216506
v 0.500000 2.866025 0.250000
v 0.437500 2.757772 0.216506
v 0.391747 2.678525 0.125000
v 0.375000 2.649519 -0.000000
v 0.391747 2.678525 -0.125000
v 0.437500 2.757772 -0.216506
v 0.500000 2.866025 -0.250000
v 0.562500 2.974278 -0.216506
v 0.608253 3.053525 -0.125000
v 0.478355 3.154849 -0.000000
v 0.465537 3.123905 0.125000
v 0.430519 3.039364 0.216506
v 0.382684 2.923879 0.250000
v 0.334848 2.808394 0.216506
v 0.299830 2.723854 0.125000
v 0.287013 2.692910 -0.000000
v 0.299830 2.723854 -0.125000
v 0.334848 2.808394 -0.216506
v 0.382684 2.923879 -0.250000
v 0.430519 3.039364 -0.216506
v 0.465537 3.123905 -0.125000
v 0.323524 3.207407 -0.000000
v 0.314855 3.175055 0.125000
v 0.291171 3.086667 0.216506
v 0.258819 2.965926 0.250000
v 0.226467 2.845185 0.216506
v 0.202783 2.756797 0.125000
v 0.194114 2.724444 -0.000000
v 0.202783 2.756797 -0.125000
v 0.226467 2.845185 -0.216506
v 0.258819 2.965926 -0.250000
v 0.291171 3.086667 -0.216506
v 0.314855 3.175055 -0.125000
v 0.163158 3.239306 -0.000000
v 0.158786 3.206099 0.125000
v 0.146842 3.115376 0.216506
v 0.130526 2.991445 0.250000
v 0.114210 2.867514 0.216506
v 0.102266 2.776791 0.125000
v 0.097895 2.743584 -0.000000
v 0.102266 2.776791 -0.125000
v 0.114210 2.867514 -0.216506
v 0.130526 2.991445 -0.250000
v 0.146842 3.115376 -0.216506
v 0.158786 3.206099 -0.125000
v 0.000000 3.250000 -0.000000
v 0.000000 3.216506 0.125000
v 0.000000 3.125000 0.216506
v 0.000000 3.000000 0.250000
v 0.000000 2.875000 0.216506
v 0.000000 2.783494 0.125000
v 0.000000 2.750000 -0.000000
v 0.000000 2.783494 -0.125000
v 0.000000 2.875000 -0.216506
v 0.000000 3.000000 -0.250000
v 0.000000 3.125000 -0.216506
v 0.000000 3.216506 -0.125000
v -0.163158 3.239306 -0.000000
v -0.158786 3.206099 0.125000
v -0.146842 3.115376 0.216506
v -0.130526 2.991445 0.250000
v -0.114211 2.867514 0.216506
v -0.102267 2.776791 0.125000
v -0.097895 2.743584 -0.000000
v -0.102267 2.776791 -0.125000
v -0.114211 2.867514 -0.216506
v -0.130526 2.991445 -0.250000
v -0.146842 3.115376 -0.216506
v -0.158786 3.206099 -0.125000
v -0.323524 3.207407 -0.000000
v -0.314855 3.175055 0.125000
v -0.291171 3.086667 0.216506
v -0.258819 2.965926 0.250000
v -0.226467 2.845185 0.216506
v -0.202783 2.756797 0.125000
v -0.194114 2.724444 -0.000000
v -0.202783 2.756797 -0.125000
v -0.226467 2.845185 -0.216506
v -0.258819 2.965926 -0.250000
v -0.291171 3.086667 -0.216506
v -0.314855 3.175055 -0.125000
v -0.478354 3.154849 -0.000000
v -0.465537 3.123905 0.125000
v -0.430519 3.039364 0.216506
v -0.382684 2.923880 0.250000
v -0.334848 2.808394 0.216506
v -0.299830 2.723854 0.125000
v -0.287013 2.692910 -0.000000
v -0.299830 2.723854 -0.125000
v -0.334848 2.808394 -0.216506
v -0.382684 2.923880 -0.250000
v -0.430519 3.039364 -0.216506
v -0.465537 3.123905 -0.125000
v -0.625000 3.082532 -0.000000
v -0.608253 3.053525 0.125000
v -0.562500 2.974279 0.216506
v -0.500000 2.866025 0.250000
v -0.437500 2.757772 0.216506
v -0.391747 2.678525 0.125000
v -0.375000 2.649519 -0.000000
v -0.391747 2.678525 -0.125000
v -0.437500 2.757772 -0.216506
v -0.500000 2.866025 -0.250000
v -0.562500 2.974279 -0.216506
v -0.608253 3.053525 -0.125000
v -0.760952 2.991692 -0.000000
v -0.740562 2.965119 0.125000
v -0.684857 2.892522 0.216506
v -0.608761 2.793353 0.250000
v -0.532666 2.694184 0.216506
v -0.476961 2.621587 0.125000
v -0.456571 2.595015 -0.000000
v -0.476961 2.621587 -0.125000
v -0.532666 2.694184 -0.216506
v -0.608761 2.793353 -0.250000
v -0.684857 2.892522 -0.216506
v -0.740562 2.965119 -0.125000
v -0.883884 2.883883 -0.000000
v -0.860200 2.860200 0.125000
v -0.795495 2.795495 0.216506
v -0.707107 2.707107 0.250000
v -0.618719 2.618718 0.216506
v -0.554014 2.554013 0.125000
v -0.530330 2.530330 -0.000000
v -0.554014 2.554013 -0.125000
v -0.618719 2.618718 -0.216506
v -0.707107 2.707107 -0.250000
v -0.795495 2.795495 -0.216506
v -0.860200 2.860200 -0.125000
v -0.991692 2.760952 -0.000000
v -0.965119 2.740562 0.125000
v -0.892523 2.684857 0.216506
v -0.793353 2.608761 0.250000
v -0.694184 2.532666 0.216506
v -0.621587 2.476961 0.125000
v -0.595015 2.456571 -0.000000
v -0.621587 2.476961 -0.125000
v -0.694184 2.532666 -0.216506
v -0.793353 2.608761 -0.250000
v -0.892523 2.684857 -0.216506
v -0.965119 2.740562 -0.125000
v -1.082532 2.625000 -0.000000
v -1.053525 2.608253 0.125000
v -0.974279 2.562500 0.216506
v -0.866025 2.500000 0.250000
v -0.757772 2.437500 0.216506
v -0.678525 2.391747 0.125000
v -0.649519 2.375000 -0.000000
v -0.678525 2.391747 -0.125000
v -0.757772 2.437500 -0.216506
v -0.866025 2.500000 -0.250000
v -0.974279 2.562500 -0.216506
v -1.053525 2.608253 -0.125000
v -1.154849 2.478354 -0.000000
v -1.123905 2.465537 0.125000
v -1.039364 2.430519 0.216506
v -0.923879 2.382684 0.250000
v -0.808394 2.334848 0.216506
v -0.723854 2.299830 0.125000
v -0.692910 2.287013 -0.000000
v -0.723854 2.299830 -0.125000
v -0.808394 2.334848 -0.216506
v -0.923879 2.382684 -0.250000
v -1.039364 2.430519 -0.216506
v -1.123905 2.465537 -0.125000
v -1.207407 2.323524 -0.000000
v -1.175055 2.314855 0.125000
v -1.086667 2.291171 0.216506
v -0.965926 2.258819 0.250000
v -0.845185 2.226467 0.216506
v -0.756797 2.202783 0.125000
v -0.724444 2.194114 -0.000000
v -0.756797 2.202783 -0.125000
v -0.845185 2.226467 -0.216506
v -0.965926 2.258819 -0.250000
v -1.086667 2.291171 -0.216506
v -1.175055 2.314855 -0.125000
v -1.241207 2.141431 -0.000000
v -1.207745 2.139970 0.125000
v -1.116326 2.135979 0.216506
v -0.991445 2.130526 0.250000
v -0.866564 2.125074 0.216506
v -0.775145 2.121083 0.125000
v -0.741683 2.119622 -0.000000
v -0.775145 2.121082 -0.125000
v -0.866564 2.125074 -0.216506
v -0.991445 2.130526 -0.250000
v -1.116326 2.135979 -0.216506
v -1.207745 2.139970 -0.125000
v 1.264734 0.794052 -0.000000
v 1.230602 0.793573 0.125000
v 1.137352 0.792262 0.216506
v 1.009970 0.790472 0.250000
v 0.882588 0.788682 0.216506
v 0.789337 0.787372 0.125000
v 0.755205 0.786893 -0.000000
v 0.789337 0.787372 -0.125000
v 0.882588 0.788682 -0.216506
v 1.009970 0.790472 -0.250000
v 1.137352 0.792262 -0.216506
v 1.230602 0.793573 -0.125000
v -1.264707 0.795631 -0.000000
v -1.230579 0.794940 0.125000
v -1.137338 0.793052 0.216506
v -1.009970 0.790473 0.250000
v -0.882601 0.787893 0.216506
v -0.789361 0.786005 0.125000
v -0.755232 0.785314 -0.000000
v -0.789361 0.786005 -0.125000
v -0.882601 0.787893 -0.216506
v -1.009970 0.790472 -0.250000
v -1.137338 0.793052 -0.216506
v -1.230579 0.794940 -0.125000
usemtl None
s off
f 1 13 14 2
f 2 14 15 3
f 3 15 16 4
f 4 16 17 5
f 5 17 18 6
f 6 18 19 7
f 7 19 20 8
f 8 20 21 9
f 9 21 22 10
f 10 22 23 11
f 11 23 24 12
f 12 24 13 1
f 13 25 26 14
f 14 26 27 15
f 15 27 28 16
f 16 28 29 17
f 17 29 30 18
f 18 30 31 19
f 19 31 32 20
f 20 32 33 21
f 21 33 34 22
f 22 34 35 23
f 23 35 36 24
f 24 36 25 13
f 25 37 38 26
f 26 38 39 27
f 27 39 40 28
f 28 40 41 29
f 29 41 42 30
f 30 42 43 31
f 31 43 44 32
f 32 44 45 33
f 33 45 46 34
f 34 46 47 35
f 35 47 48 36
f 36 48 37 25
f 37 49 50 38
f 38 50 51 39
f 39 51 52 40
f 40 52 53 41
f 41 53 54 42
f 42 54 55 43
f 43 55 56 44
f 44 56 57 45
f 45 57 58 46
f 46 58 59 47
f 47 59 60 48
f 48 60 49 37
f 49 61 62 50
f 50 62 63 51
f 51 63 64 52
f 52 64 65 53
f 53 65 66 54
f 54 66 67 55
f 55 67 68 56
f 56 68 69 57
f 57 69 70 58
f 58 70 71 59
f 59 71 72 60
f 60 72 61 49
f 61 73 74 62
f 62 74 75 63
f 63 75 76 64
f 64 76 77 65
f 65 77 78 66
f 66 78 79 67
f 67 79 80 68
f 68 80 81 69
f 69 81 82 70
f 70 82 83 71
f 71 83 84 72
f 72 84 73 61
f 73 85 86 74
f 74 86 87 75
f 75 87 88 76
f 76 88 89 77
f 77 89 90 78
f 78 90 91 79
f 79 91 92 80
f 80 92 93 81
f 81 93 94 82
f 82 94 95 83
f 83 95 96 84
f 84 96 85 73
f 85 97 98 86
f 86 98 99 87
f 87 99 100 88
f 88 100 101 89
f 89 101 102 90
f 90 102 103 91
f 91 103 104 92
f 92 104 105 93
f 93 105 106 94
f 94 106 107 95
f 95 107 108 96
f 96 108 97 85
f 97 109 110 98
f 98 110 111 99
f 99 111 112 100
f 100 112 113 101
f 101 113 114 102
f 102 114 115 103
f 103 115 116 104
f 104 116 117 105
f 105 117 118 106
f 106 118 119 107
f 107 119 120 108
f 108 120 109 97
f 109 121 122 110
f 110 122 123 111
f 111 123 124 112
f 112 124 125 113
f 113 125 126 114
f 114 126 127 115
f 115 127 128 116
f 116 128 129 117
f 117 129 130 118
f 118 130 131 119
f 119 131 132 120
f 120 132 121 109
f 121 133 134 122
f 122 134 135 123
f 123 135 136 124
f 124 136 137 125
f 125 137 138 126
f 126 138 139 127
f 127 139 140 128
f 128 140 141 129
f 129 141 142 130
f 130 142 143 131
f 131 143 144 132
f 132 144 133 121
f 133 145 146 134
f 134 146 147 135
f 135 147 148 136
f 136 148 149 137
f 137 149 150 138
f 138 150 151 139
f 139 151 152 140
f 140 152 153 141
f 141 153 154 142
f 142 154 155 143
f 143 155 156 144
f 144 156 145 133
f 145 157 158 146
f 146 158 159 147
f 147 159 160 148
f 148 160 161 149
f 149 161 162 150
f 150 162 163 151
f 151 163 164 152
f 152 164 165 153
f 153 165 166 154
f 154 166 167 155
f 155 167 168 156
f 156 168 157 145
f 157 169 170 158
f 158 170 171 159
f 159 171 172 160
f 160 172 173 161
f 161 173 174 162
f 162 174 175 163
f 163 175 176 164
f 164 176 177 165
f 165 177 178 166
f 166 178 179 167
f 167 179 180 168
f 168 180 169 157
f 169 181 182 170
f 170 182 183 171
f 171 183 184 172
f 172 184 185 173
f 173 185 186 174
f 174 186 187 175
f 175 187 188 176
f 176 188 189 177
f 177 189 190 178
f 178 190 191 179
f 179 191 192 180
f 180 192 181 169
f 181 193 194 182
f 182 194 195 183
f 183 195 196 184
f 184 196 197 185
f 185 197 198 186
f 186 198 199 187
f 187 199 200 188
f 188 200 201 189
f 189 201 202 190
f 190 202 203 191
f 191 203 204 192
f 192 204 193 181
f 193 205 206 194
f 194 206 207 195
f 195 207 208 196
f 196 208 209 197
f 197 209 210 198
f 198 210 211 199
f 199 211 212 200
f 200 212 213 201
f 201 213 214 202
f 202 214 215 203
f 203 215 216 204
f 204 216 205 193
f 205 217 218 206
f 206 218 219 207
f 207 219 220 208
f 208 220 221 209
f 209 221 222 210
f 210 222 223 211
f 211 223 224 212
f 212 224 225 213
f 213 225 226 214
f 214 226 227 215
f 215 227 228 216
f 216 228 217 205
f 217 229 230 218
f 218 230 231 219
f 219 231 232 220
f 220 232 233 221
f 221 233 234 222
f 222 234 235 223
f 223 235 236 224
f 224 236 237 225
f 225 237 238 226
f 226 238 239 227
f 227 239 240 228
f 228 240 229 217
f 229 241 242 230
f 230 242 243 231
f 231 243 244 232
f 232 244 245 233
f 233 245 246 234
f 234 246 247 235
f 235 247 248 236
f 236 248 249 237
f 237 249 250 238
f 238 250 251 239
f 239 251 252 240
f 240 252 241 229
f 241 253 254 242
f 242 254 255 243
f 243 255 256 244
f 244 256 257 245
f 245 257 258 246
f 246 258 259 247
f 247 259 260 248
f 248 260 261 249
f 249 261 262 250
f 250 262 263 251
f 251 263 264 252
f 252 264 253 241
f 253 265 266 254
f 254 266 267 255
f 255 267 268 256
f 256 268 269 257
f 257 269 270 258
f 258 270 271 259
f 259 271 272 260
f 260 272 273 261
f 261 273 274 262
f 262 274 275 263
f 263 275 276 264
f 264 276 265 253
f 272 271 295 296
f 266 265 289 290
f 9 10 286 285
f 8 9 285 284
f 12 1 277 288
f 3 4 280 279
f 11 12 288 287
f 6 7 283 282
f 7 8 284 283
f 2 3 279 278
f 265 276 300 289
f 271 270 294 295
f 267 266 290 291
f 1 2 278 277
f 5 6 282 281
f 276 275 299 300
f 269 268 292 293
f 4 5 281 280
f 274 273 297 298
f 268 267 291 292
f 10 11 287 286
f 273 272 296 297
f 275 274 298 299
f 270 269 293 294
