# Blender v2.70 (sub 0) OBJ File: ''
# www.blender.org
mtllib untitled.mtl
o Cube.001
v 0.096000 0.995340 1.000000
v 0.096000 2.157456 1.000000
v -0.096000 2.157456 1.000000
v -0.096000 0.995340 1.000000
v 0.096000 0.995340 -1.000000
v 0.096000 2.157457 -1.000000
v -0.096000 2.157457 -1.000000
v -0.096000 0.995340 -1.000000
v 0.020760 -0.326257 -0.090000
v 0.020760 -0.326257 0.090000
v -0.155618 -0.326257 0.090000
v -0.155618 -0.326257 -0.090000
v 0.020760 0.999130 -0.090000
v 0.020760 0.999130 0.090000
v -0.155618 2.291300 0.090000
v -0.155618 2.291300 -0.090000
v -0.095032 -0.326257 -0.090000
v -0.095032 -0.326257 0.090000
v -0.095032 2.291300 -0.090000
v -0.095032 2.291300 0.090000
vt 0.454424 0.863917
vt 0.186174 0.863917
vt 0.252337 0.824126
vt 0.394365 0.832634
vt 0.448477 0.777894
vt 0.399512 0.805016
vt 0.258167 0.796424
vt 0.177576 0.744283
vt 0.724447 0.128541
vt 0.724447 0.445166
vt 0.294303 0.445166
vt 0.294303 0.128541
vt 0.778207 0.800082
vt 0.909293 0.800082
vt 0.909293 0.931168
vt 0.778207 0.931168
usemtl Material
s off
f 1/1 2/2 3/3 4/4
f 5/5 8/6 7/7 6/8
f 1/9 5/10 6/11 2/12
f 2/2 6/8 7/7 3/3
f 3/3 7/7 8/6 4/4
f 5/5 1/1 4/4 8/6
s 1
f 17/13 18/14 11/15 12/16
f 19/13 16/14 15/15 20/16
f 9/13 13/14 14/15 10/16
f 18/13 20/14 15/15 11/16
f 11/13 15/14 16/15 12/16
f 19/13 17/14 12/15 16/16
f 9/13 10/14 18/15 17/16
f 13/13 19/14 20/15 14/16
f 10/13 14/14 20/15 18/16
f 13/13 9/14 17/15 19/16
